,TriangleID,gdp_2017(current US$)
0,1,3862552857142.8584
1,2,15094535861.50041
2,3,1022866917284.9681
3,4,1788336663529.3818
4,5,1526074913780.0808
5,6,239617548429.47208
6,7,1647986793154.431
7,8,149644105523.49548
8,9,180874179719.70316
9,10,11190776586.974443
10,11,131166311624.07254
11,12,135028465405.49243
12,13,76513681780.70898
13,14,2740145228365.1943
14,15,819299472912.4825
15,18,78793075560.83301
16,22,1821754328.1121192
17,24,2175439721619.137
18,25,134697990076.573
19,27,1119017782203.3706
20,28,118257057127.84215
21,29,1167880586936.6934
22,31,370029175658.17865
23,33,1900555663480.4763
24,34,192374975809.63773
25,35,379783693424.6761
26,36,2884962931174.8096
27,37,521448971847.9014
28,38,1572968133073.6475
29,39,2936211854477.563
30,40,85003654822.33504
31,41,282416514382.4027
32,42,114267208121.82742
33,43,192767851099.83078
34,44,313512219094.21063
35,45,146317766497.4619
36,46,3021791210759.5815
37,47,507888449399.6044
38,48,354629049799.1421
39,49,1179961720774.919
40,50,9305276147927.094
41,51,1880794979344.7317
42,54,2322504230.1184435
43,56,398196705503.69165
44,57,5125493095.116279
45,58,55742651162.7907
46,59,17654476216.511627
47,60,0.0
48,61,3256642537118.236
49,63,87218421052.63158
50,64,1465529770923.091
51,65,215551979345.08365
52,66,647896366566.8252
53,67,1156192595090.8394
54,68,924411522756.3425
55,69,181262473260.5998
56,70,1040021884818.0757
57,71,825648687968.8337
58,72,172285909315.74606
59,73,560487091442.0991
60,74,58345157345.808014
61,75,45804108821.104706
62,76,200546830538.72733
63,77,136143948617.47133
64,78,164986372238.75238
65,79,118100754000.75821
66,80,2929195309.330189
67,81,25816235521.73128
68,83,650932290.9622643
69,84,96902911147.07094
70,85,164175163726.00165
71,86,712181865928.7299
72,87,163729341680.372
73,88,219749637305.6995
74,89,317008682369.0343
75,90,1033317187423.6509
76,91,831365379417.3313
77,92,832461748052.5784
78,94,63309999814.488525
79,95,9292687821.123077
80,104,202259305833.32404
81,105,91700251801.34488
82,106,48732601022.0666
83,107,52988945764.24294
84,108,32142035810.559814
85,109,44121166896.4995
86,111,25570123676.056625
87,114,162819946878.69208
88,115,2370363636.3636365
89,117,60910612813.370476
90,118,1202158216176.186
91,119,224407520891.36496
92,120,140296646153.84616
93,121,446758608991.51196
94,123,131404581821.66666
95,124,277462628396.3321
96,125,202134812008.8951
97,127,145232430304.5546
98,140,33639015968.92534
99,144,168986315058.9868
100,145,286560245398.77295
101,146,225243656576.62363
102,147,49355766208.46549
103,148,215991511795.29056
104,149,865810814038.5538
105,150,1179686960933.5361
106,151,911598132741.4438
107,153,60153333333.33333
108,156,62719000000.0
109,157,6229570552.147239
110,158,363386196704.79486
111,159,236938444444.44446
112,160,147863025676.61346
113,162,77869631901.84048
114,168,615166901372.4517
115,169,123982145473.94992
116,170,313809577272.6641
117,171,5127861259.614641
118,173,127706196319.01837
119,176,7919676206.707546
120,177,274263102975.375
121,178,62876177370.86951
122,179,21058039162.547806
123,184,48223173942.95588
124,185,256524642788.6264
125,186,17273217031.035526
126,187,90438795998.56725
127,188,17324582262.72517
128,189,60996789309.77803
129,190,70941046474.49313
130,191,108573665547.00063
131,193,153737163461.53845
132,194,157968461538.46155
133,195,52186009615.38461
134,196,301072245308.88153
135,198,244264414225.12393
136,199,75041869744.21852
137,200,25387788461.538464
138,201,166315781541.68976
139,202,17216666666.666668
140,203,282166469287.38715
141,204,393218607355.57043
142,205,339914278846.1539
143,206,369482128815.18054
144,207,385200552395.73395
145,214,0.0
146,226,0.0
147,227,5061202767.0
148,228,122147716863.2894
149,229,214906509368.49405
150,230,56808589016.62205
151,231,203885662734.21237
152,236,3119440192.5569625
153,238,575253192.6666665
154,239,1591080218.3333333
155,242,0.0
156,245,124902928521.8598
157,248,0.0
158,249,0.0
159,250,0.0
160,251,0.0
161,256,116637293546.14851
162,257,107453254684.24702
163,259,73472310895.21164
164,260,119081083333.33336
165,264,0.0
166,266,0.0
167,267,0.0
168,270,81655600000.0
169,271,3402316666.666667
170,281,0.0
171,282,0.0
172,283,0.0
173,289,352126215283.26904
174,290,72295234510.28836
175,291,121837892232.55443
176,292,5709113133.712551
177,296,0.0
178,297,0.0
179,298,0.0
180,299,0.0
181,300,0.0
182,301,72294990174.88477
183,302,24271890544.97118
184,303,2201830742.659758
185,308,70982614718.61472
186,312,0.0
187,313,0.0
188,314,0.0
189,315,0.0
190,318,6041073593.073592
