GDP,Trade,Unemp,Resources,IO,EPI,Population
0,0,0,0,0,0,0
2839744.29,45.4660147,5.43,0.04,136,76,49557065.07
46073.04,64.352107,6.43,0.03,29,72,1087938.12
961939.11,45.4660147,5.43,0.02,136,76,16881667.73
1161588.95,45.4660147,5.43,0.08,136,76,21596066.25
215007.52,64.352107,6.43,0.14,29,72,5077044.56
261080.56,64.352107,6.43,0.17,29,72,6164982.68
732.6,0,0,0,0.1,56,18541.38
92146.08,64.352107,0.39,0.06,29,72,2175876.24
754.8,0,0,0,0.1,56,19103.24
0,0,0,0,0,0,0
732.6,0,0,0,0.1,56,18541.38
168934.48,64.352107,0.71,0.11,29,72,3989106.44
153576.8,64.352107,0.64,0.1,29,72,3626460.4
763330.41,60.45049653,1.26,0.04,158.5349699,77,14381016.87
107503.76,64.352107,0.45,0.07,29,72,2538522.28
10752.7,86.7170277,2.2,3.19,53.28877156,57,11218231.6
1617,0.1,10.34,0.84,19.42832188,57,539560
88652.95,74.90786603,2.52,2.57,115.4454436,57,30276563.44
59184.5,76.13191404,4.2,15.02,209.8641045,51,57046189.04
0,0,0,0,0,0,0
0,0,0,0,0,0,0
0,0,0,0,0,0,0
0,0,0,0,0,0,0
2581346.42,60.298543,6.12,0.76,119.2214245,59,87935007.31
0,0,0,0,0,0,0
1573431,88.87629042,1.24,0.35,94.39645486,54,37864856.3
1853899.9,126.1524911,2.96,0.1,122.0377901,71,43243601.95
0,0,0,0,0,0,0
59244.81,71.94336487,1.2,0.23,89.60495314,61,9319999.08
0,0,0,0,0,0,0
0,0,0,0,0,0,0
114840,55.7961837,1.97,3.46,74.14178951,52,27871323.64
146739.8,89.96457278,2.65,3.09,179.2844473,57,21637738.26
95749.26,29.3933285,2.36,2.86,78.66399247,53,64138784.66
788522.21,91.99216526,1.85,15.3,328.9616364,56,64351739.41
390859.54,81.13233053,2.5,4.03,164.7602962,53,33687745.34
106324.75,45.26658218,1.4,3.15,102.3107646,46,60559125.55
219544.5,63.20906667,2.59,10.16,161.9081058,45,142244840.6
210785.9,55.5582544,1.59,5.63,54.62785903,48,113759888.7
486268.33,88.46133573,2.96,0.41,218.9403697,62,60351162.56
3874170.42,116.4092989,3.2,0.25,237.907839,69,107335185.4
2903879.33,106.5030216,3.11,0.45,296.7115984,62,79541352.96
3928983.52,109.2180159,7.33,0.53,568.1833155,64,160794251.8
240985.28,106.4875891,4.5,0.94,118.1395829,60,20744963.56
1259454.83,64.9967969,7.94,1.97,275.0333314,64,154768528.5
147151.3,40.13225203,2.31,3.09,72.17864232,51,41913297
339895.5,30.0336004,7.44,2,32.99423559,51,50990967
2018641.85,66.3494026,0.84,0.2,39.80986046,51,248916549.5
2240164.49,66.3494026,0.94,0.23,39.80986046,51,275823821.9
115708.33,70.9533765,0.47,1.03,32.42160978,58,13051363.6
369465.71,59.6553788,0.12,0.13,72.23147024,56,46365976.52
800936.2,42.4367906,1.32,0.39,85.64976803,44,490158834.3
69748.6,205.260996,0.34,3.05,40.3841903,53,1853922.4
311898.7,53.01802944,3.7,3.67,136.9457143,55,66257381.6
307771.1,82.3839575,2.07,2.12,117.4287921,50,109980172.4
134945.6,61.84758255,1.06,1.91,79.93999646,71,14876715.8
137933.54,85.89219732,1.91,0.57,167.0715142,60,20770684.08
534917.54,95.55688139,2.95,0.44,200.4590038,55,17097774.88
130686.65,85.8440366,0.27,0.61,68.54089291,65,14909316.3
152113.15,60.64122483,4.23,6.24,178.7383394,56,46819542.75
195342.44,61.18737943,3,4.7,142.2751546,63,18485192.78
1305799.3,46.70653617,1.92,1.07,159.0616209,51,255959756.6
2793671.25,26.5799224,0.67,0.04,107,80,48469126.95
0,0,0,0,0,0,0
0,0,0,0,0,0,0
0,0,0,0,0,0,0
64158.15,46.2673312,0.26,0.57,32.42160978,65,7217119.8
95321.55,52.88429676,3.04,1.69,103.899629,58,23815080.35
1593543.56,41.6633573,0.38,0.19,72.23147024,58,195899947.9
128316.3,46.2673312,0.52,1.15,32.42160978,65,14434239.6
675441.92,41.6633573,0.35,0.54,72.23147024,58,81924065.64
0,0,0,0,0,0,0
64158.15,46.2673312,0.26,0.57,32.42160978,65,7217119.8
0,0,0,0,0,0,0
186636.3,74.64166217,0.93,0.61,83.65846769,58,3112684.1
89821.41,46.2673312,0.36,0.8,32.42160978,65,10103967.72
0,0,0,0,0,0,0
89821.41,46.2673312,0.36,0.8,32.42160978,65,10103967.72
38494.89,46.2673312,0.16,0.34,32.42160978,65,4330271.88
102,150.553398,0,0.1,0,58,13049
0,0,0,0,0,0,0
0,0,0,0,0,0,0
7035,108.0295349,5.03,0.22,0.1,55,217919
0,0,0,0,0,0,0
2224557.3,39.11992095,9.79,0.25,89.93840857,60,101651322
0,0,0,0,0,0,0
2969563.8,31.2665824,8.95,0.77,28.94056679,75,76196706.6
0,0,0,0,0,0,0
0,0,0,0,0,0,0
0,0,0,0,0,0,0
0,0,0,0,0,0,0
0,0,0,0,0,0,0
0,0,0,0,0,0,0
0,0,0,0,0,0,0
18645.18,37.3868038,0.09,0.05,40.77225501,47,5222309.12
0,0,0,0,0,0,0
561793.05,141.5496107,2.56,2.47,160.0272101,51,74752518.7
205096.98,37.3868038,0.94,0.55,40.77225501,47,57445400.32
58708.4,25.31056515,3.14,10.17,29.6917078,64,16110771
0,0,0,0,0,0,0
1027159.2,44.34339585,1.34,0.69,43.60543742,43,607470217.7
254999.8,81.91053013,2.19,0.08,69.66845822,56,139205791.4
529842.1,174.8271126,1.42,0.91,114.8991476,61,41027075.65
1576993,84.09469643,0.6,1.4,251.7547804,49,264644924
0,0,0,0,0,0,0
542536.1,63.0010397,1.03,1.03,186.6753265,43,302678606.9
1742244.85,99.78114283,0.45,0.44,108.6848913,57,235508389.3
384262.66,113.0563057,0.47,1.11,215.5414431,51,103573150.6
18645.18,37.3868038,0.09,0.05,40.77225501,47,5222309.12
129202,70.50440267,0.28,0.39,114.1287191,48,34518794.4
36916.2,73.17487723,3.1,7.18,235.7487226,43,39474488.95
0,0,0,0,0,0,0
209469.55,97.89414863,6.63,1.16,131.767209,54,39915683.15
16109.92,80.51355817,1.32,1.88,69.93273234,60,13050473.59
73906.4,99.9648894,19.25,6.09,124.9457895,59,38169801.82
29695.3,83.8187619,2.39,2.2,31.39933286,41,8892010.2
343,0,13.39,3.42,17.2051269,56,199910
42449.44,75.96187452,4.25,6.26,219.8110619,43,16261481.06
6284.33,57.01272523,1.68,2.83,46.72710051,51,11789412.88
117911.86,43.66901996,2.43,3.34,115.3770002,46,129002896.5
1989.44,77.8993083,1.91,5.66,0,43,4581758.72
34429.12,48.42875323,1.5,3.17,48.67678325,51,40969640.41
59443.45,48.40732165,1.13,8.5,128.2757226,42,100454028.6
26015.27,70.85682562,1.08,1.9,135.8081406,51,30896213.27
57433.4,84.7144647,9.49,2.37,102.7123745,46,14911813.3
77309.03,61.75983346,2.75,5.33,175.7245764,43,70730397.99
228164.35,43.41948853,2.74,0.63,107.0002968,58,21412559.95
284097.35,54.1700357,1.48,0.72,82.50970049,52,35134969.85
89809.35,24.6137202,0.64,0.15,21.24295375,61,10382643.25
279026.45,52.94214705,1.98,0.63,51.55799885,50,33501787.55
289358.7,58.4481993,5.66,11.56,59.02938633,52,31500827.65
36631,65.04535306,12.19,0.86,141.8178718,56,2381770
0,0,0,0,0,0,0
17555.5,69.726359,0.47,0.81,37.78643258,49,1644992.5
0,0,0,0,0,0,0
0,0,0,0,0,0,0
0,0,0,0,0,0,0
0,0,0,0,0,0,0
0,0,0,0,0,0,0
89809.35,24.6137202,0.64,0.15,21.24295375,61,10382643.25
359237.4,24.6137202,2.58,0.62,21.24295375,61,41530573
179618.7,24.6137202,1.29,0.31,21.24295375,61,20765286.5
0,0,0,0,0,0,0
0,0,0,0,0,0,0
744979,26.5799224,0.18,0.01,107,80,12925100.52
0,0,0,0,0,0,0
0,0,0,0,0,0,0
0,0,0,0,0,0,0
2793671.25,26.5799224,0.67,0.04,107,80,48469126.95
931223.75,26.5799224,0.22,0.01,107,80,16156375.65
313770.4,67.82112608,3.63,1.14,114.3691142,59,48632137.95
2979916,26.5799224,0.71,0.05,107,80,51700402.08
77598.8,76.5187809,5.65,0.02,42.43529126,59,10158176.2
407342.7,26.5799224,0.56,0.01,107.1,72,11052943.06
2898363.55,52.34625375,0.51,0.15,139.7452811,68,61223169.25
314076.9,78.1125851,1.05,0.79,32.74528113,57,38262126.9
0,0,0,0,0,0,0
366423.05,78.1125851,1.23,0.93,32.74528113,57,44639148.05
0,0,0,0,0,0,0
0,0,0,0,0,0,0
0,0,0,0,0,0,0
0,0,0,0,0,0,0
0,0,0,0,0,0,0
0,0,0,0,0,0,0
0,0,0,0,0,0,0
0,0,0,0,0,0,0
0,0,0,0,0,0,0
0,0,0,0,0,0,0
0,0,0,0,0,0,0
0,0,0,0,0,0,0
0,0,0,0,0,0,0
0,0,0,0,0,0,0
182,106.705732,3.76,0.02,38.55722563,55,114395
0,0,0,0,0,0,0
0,0,0,0,0,0,0
6845.2,0,3.74,5.87,36.9342587,65,3767774.6
0,0,0,0,0,0,0
0,0,0,0,0,0,0
120461.6,39.9516214,0.57,0.55,24.32757093,74,2421080.9
1418880.8,48.66866793,1.14,0.16,89.83840857,60,53334109.45
96369.28,39.9516214,0.45,0.44,24.32757093,74,1936864.72
199146.05,83.0157444,0.66,0.62,79.10924652,48,45404771.4
167074.55,38.6692126,0.39,0.34,65.09982594,61,15476853.7
0,0,0,0,0,0,0
182943,64.8989498,1.67,0.8,30.83032745,62,61992133.2
111991.45,37.0593834,0.05,0.01,39.80986046,51,13786650
168574.95,51.1428768,0.66,0.33,71.60258246,54,54383861.6
310,124.770676,0,0.1,20.86169668,38,21503
107375,37.3868038,1.15,5.83,40.77225501,55,31771039.3
0,0,0,0,0,0,0
0,0,0,0,0,0,0
0,0,0,0,0,0,0
0,0,0,0,0,0,0
0,0,0,0,0,0,0
0,0,0,0,0,0,0
0,0,0,0,0,0,0
0,0,0,0,0,0,0
0,0,0,0,0,0,0
0,0,0,0,0,0,0
1427,0,0,0.11,0,57,94677
0,0,0,0,0,0,0
0,0,0,0,0,0,0
12168,98.3832905,7.16,0,20.87946869,39,1263473
0,0,0,0,0,0,0
0,0,0,0,0,0,0
0,0,0,0,0,0,0
0,0,0,0,0,0,0
0,0,0,0,0,0,0
0,0,0,0,0,0,0
0,0,0,0,0,0,0
0,0,0,0,0,0,0
0,0,0,0,0,0,0
0,0,0,0,0,0,0
0,0,0,0,0,0,0
0,0,0,0,0,0,0
0,0,0,0,0,0,0
0,0,0,0,0,0,0
0,0,0,0,0,0,0
0,0,0,0,0,0,0
0,0,0,0,0,0,0
0,0,0,0,0,0,0
255244.6,41.1766769,2.27,1.05,57.97223416,58,20225435.1
0,0,0,0,0,0,0
142697.7,46.32638893,1.16,1.37,88.92393579,58,11197551
0,0,0,0,0,0,0
0,0,0,0,0,0,0
0,0,0,0,0,0,0
0,0,0,0,0,0,0
388149.04,24.61479825,2.12,0.63,88.62707087,57,49936361.95
178248.25,67.8895385,3.78,1.4,138.6333467,62,30108612.55
184642,78.51235763,10.38,1.07,76.34456538,57,24907432
277969.45,43.1185201,3.1,0.68,60.83186563,55,37641775.8
19722.8,38.8297745,0.97,0.88,34.69118024,57,3277013.6
247457.65,41.21851728,1.12,1.75,119.4214954,57,36990132.35
0,0,0,0,0,0,0
68276.65,41.81726795,1.25,1.45,67.22683997,56,11320103.05
0,0,0,0,0,0,0
330,99.0240246,0,0.04,0,60,104937
2754,83.4422839,2.16,0.43,37.38155528,47,556502
0,0,0,0,0,0,0
3796,105.0499934,5.68,0.46,41.51067124,51,700104
0,0,0,0,0,0,0
0,0,0,0,0,0,0
0,0,0,0,0,0,0
228,55.777234,0.1,0.1,0.1,74,64163
0,0,0,0,0,0,0
0,0,0,0,0,0,0
0,0,0,0,0,0,0
0,0,0,0,0,0,0
0,0,0,0,0,0,0
0,0,0,0,0,0,0
0,0,0,0,0,0,0
0,0,0,0,0,0,0
0,0,0,0,0,0,0
0,0,0,0,0,0,0
0,0,0,0,0,0,0
0,0,0,0,0,0,0
213048.4,41.1766769,2.01,1.25,57.97223416,58,16736179.8
12351.4,56.0871987,0.35,0.52,31.29467476,57,895487.7
24702.8,56.0871987,0.7,1.05,31.29467476,57,1790975.4
0,0,0,0,0,0,0
0,0,0,0,0,0,0
0,0,0,0,0,0,0
0,0,0,0,0,0,0
0,0,0,0,0,0,0
0,0,0,0,0,0,0
0,0,0,0,0,0,0
0,0,0,0,0,0,0
5454.76,26.2661551,0.09,0.01,26.6775594,59,438474.3
0,0,0,0,0,0,0
12351.4,56.0871987,0.35,0.52,31.29467476,57,895487.7
5454.76,26.2661551,0.09,0.01,26.6775594,59,438474.3
0,0,0,0,0,0,0
0,0,0,0,0,0,0
0,0,0,0,0,0,0
0,0,0,0,0,0,0
0,0,0,0,0,0,0
0,0,0,0,0,0,0
0,0,0,0,0,0,0
0,0,0,0,0,0,0
0,0,0,0,0,0,0
0,0,0,0,0,0,0
0,0,0,0,0,0,0
0,0,0,0,0,0,0
0,0,0,0,0,0,0
0,0,0,0,0,0,0
0,0,0,0,0,0,0
0,0,0,0,0,0,0
0,0,0,0,0,0,0
0,0,0,0,0,0,0
36138.48,39.9516214,0.17,0.17,24.32757093,74,726324.27
0,0,0,0,0,0,0
0,0,0,0,0,0,0
0,0,0,0,0,0,0
0,0,0,0,0,0,0
0,0,0,0,0,0,0
0,0,0,0,0,0,0
0,0,0,0,0,0,0
0,0,0,0,0,0,0
0,0,0,0,0,0,0
0,0,0,0,0,0,0
240923.2,39.9516214,1.14,1.1,24.32757093,74,4842161.8
240923.2,39.9516214,1.14,1.1,24.32757093,74,4842161.8
0,0,0,0,0,0,0
180692.4,39.9516214,0.85,0.83,24.32757093,74,3631621.35
420.7,0,3.6,3.69,36.9342587,68,722764.7
0,0,0,0,0,0,0
0,0,0,0,0,0,0
774,0.1,5.22,0.88,0.1,46,270402
0,0,0,0,0,0,0
172023.03,52.5149126,13.72,0,0,75,4364676
0,0,0,0,0,0,0
3699.42,52.5149126,0.3,0,0,75,93864
9248.55,52.5149126,0.74,0,0,75,234660
96369.28,39.9516214,0.45,0.44,24.32757093,74,1936864.72
144553.92,39.9516214,0.68,0.66,24.32757093,74,2905297.08
144553.92,39.9516214,0.68,0.66,24.32757093,74,2905297.08
0,0,0,0,0,0,0
151561.54,48.27803705,0.82,1.15,173.0175944,54,22732373.7
