,TriangleID,Jobs_2017
0,0,0.0
1,1,36132916.44907867
2,2,557670.6121732121
3,3,9468722.378505768
4,4,96095872.0258376
5,5,89010951.40483056
6,6,12529138.782468788
7,7,88668534.95467539
8,8,5528631.068958568
9,9,6682432.335523834
10,10,413445.4538525538
11,11,4845965.319574119
12,12,5018872.879181279
13,13,2826813.1030849027
14,14,104220650.04074161
15,15,42598728.13114729
16,16,0.0
17,17,0.0
18,18,588799.538953606
19,19,0.0
20,20,0.0
21,21,0.0
22,22,67305.07388297388
23,23,0.0
24,24,14571989.403518466
25,25,3697489.662052493
26,26,0.0
27,27,7322151.082818668
28,28,787958.5539209212
29,29,7688729.122160705
30,30,0.0
31,31,2416003.960264714
32,32,0.0
33,33,12431093.577412765
34,34,1518083.8998126881
35,35,2505286.477030652
36,36,19798091.302750178
37,37,5928641.472401875
38,38,10535944.215142539
39,39,19531758.630312443
40,40,778033.3603888898
41,41,2584941.437794781
42,42,1045880.9106867042
43,43,1764392.5932316352
44,44,2670975.4179578857
45,45,1339237.7514890723
46,46,19781142.620225128
47,47,3721951.2214372335
48,48,6678889.33874309
49,49,18677520.400515825
50,50,82201634.07599528
51,51,18497019.64053953
52,52,0.0
53,53,0.0
54,54,21257.742087128136
55,55,0.0
56,56,2542109.1452350114
57,57,35073.14927515744
58,58,293499.7855651167
59,59,120807.51416998674
60,60,0.0
61,61,28904393.30401709
62,62,0.0
63,63,470923.0664182354
64,64,104601415.35210977
65,65,36502088.491090685
66,66,33958319.01027467
67,67,85228382.1797275
68,68,35902144.33105233
69,69,6889406.098781941
70,70,43193658.576552905
71,71,22160488.971556086
72,72,6365136.987218386
73,73,5665872.362593258
74,74,389649.8911122222
75,75,1692241.8576290577
76,76,7877776.303216547
77,77,5379745.43140418
78,78,13958013.251912514
79,79,4788110.39463616
80,80,3101805.757606366
81,81,5629723.290037292
82,82,0.0
83,83,689290.1683569704
84,84,37106268.80063117
85,85,16624994.810270436
86,86,15294324.86718563
87,87,11022613.607241223
88,88,37290553.83043529
89,89,48063890.61414026
90,90,183826549.22506
91,91,141314939.49451712
92,92,18115792.94599513
93,93,0.0
94,94,25479526.602352995
95,95,1878214.1239395516
96,96,0.0
97,97,0.0
98,98,0.0
99,99,0.0
100,100,0.0
101,101,0.0
102,102,0.0
103,103,0.0
104,104,43023743.17878779
105,105,6965564.285278187
106,106,5239690.711725283
107,107,7446954.555157165
108,108,2360027.5150384707
109,109,12875034.349831827
110,110,0.0
111,111,6100612.374404284
112,112,0.0
113,113,0.0
114,114,11474071.737341989
115,115,162016.2588396261
116,116,0.0
117,117,2681303.2550826524
118,118,28641978.674110558
119,119,9878485.6766203
120,120,13952059.833409969
121,121,5380715.628672499
122,122,0.0
123,123,11501053.495494746
124,124,10970834.285621818
125,125,9805661.852834178
126,126,0.0
127,127,14118731.834905436
128,128,0.0
129,129,0.0
130,130,0.0
131,131,0.0
132,132,0.0
133,133,0.0
134,134,0.0
135,135,0.0
136,136,0.0
137,137,0.0
138,138,0.0
139,139,0.0
140,140,219636.7236604286
141,141,0.0
142,142,0.0
143,143,0.0
144,144,1265015.8711198724
145,145,32278499.60105596
146,146,24694585.196585495
147,147,3555381.3523171563
148,148,38767601.00482676
149,149,80613984.61005409
150,150,63384728.90560222
151,151,75090911.29991114
152,152,0.0
153,153,556418.0804677093
154,154,0.0
155,155,0.0
156,156,7754534.279709163
157,157,701706.513066434
158,158,26032111.53063211
159,159,29294907.278901286
160,160,1106888.8872298885
161,161,0.0
162,162,8771331.413330425
163,163,0.0
164,164,0.0
165,165,0.0
166,166,0.0
167,167,0.0
168,168,25813876.741022907
169,169,13352455.696499214
170,170,70848223.10811633
171,171,957768.3203878591
172,172,0.0
173,173,14384983.517861893
174,174,0.0
175,175,0.0
176,176,8386363.715009804
177,177,16323673.335807357
178,178,31062039.860357195
179,179,12004122.17938211
180,180,0.0
181,181,0.0
182,182,0.0
183,183,0.0
184,184,24654504.01068632
185,185,37805636.02064307
186,186,5665998.690931914
187,187,17125043.302384265
188,188,2375109.3488983186
189,189,34420907.53289208
190,190,5043984.343454018
191,191,13668324.725031506
192,192,0.0
193,193,6102202.746822522
194,194,6270153.281138737
195,195,2071389.923233333
196,196,8999191.300725985
197,197,0.0
198,198,15294705.30883292
199,199,3880879.4137066733
200,200,1007703.2058972971
201,201,15780518.788167667
202,202,139297.85525070113
203,203,3014664.5930776894
204,204,16369106.274990514
205,205,13492026.256736035
206,206,15890970.727238772
207,207,15414029.392691968
208,208,0.0
209,209,0.0
210,210,0.0
211,211,0.0
212,212,0.0
213,213,0.0
214,214,93956.717776575
215,215,0.0
216,216,0.0
217,217,0.0
218,218,0.0
219,219,0.0
220,220,0.0
221,221,0.0
222,222,0.0
223,223,0.0
224,224,0.0
225,225,0.0
226,226,0.0
227,227,324842.4422660038
228,228,914386.472059473
229,229,1608770.1839241853
230,230,4443749.410831936
231,231,1526269.1488511506
232,232,0.0
233,233,0.0
234,234,0.0
235,235,0.0
236,236,346926.54187081725
237,237,0.0
238,238,175684.86816538725
239,239,284005.9072692159
240,240,0.0
241,241,0.0
242,242,0.0
243,243,0.0
244,244,0.0
245,245,935011.7308277317
246,246,0.0
247,247,0.0
248,248,0.0
249,249,0.0
250,250,0.0
251,251,0.0
252,252,0.0
253,253,0.0
254,254,0.0
255,255,0.0
256,256,873135.9545229555
257,257,804385.0919620927
258,258,0.0
259,259,550006.9004869009
260,260,1211908.3006438399
261,261,0.0
262,262,0.0
263,263,0.0
264,264,0.0
265,265,0.0
266,266,0.0
267,267,0.0
268,268,0.0
269,269,0.0
270,270,831022.8347272044
271,271,34625.95144696685
272,272,0.0
273,273,0.0
274,274,0.0
275,275,0.0
276,276,0.0
277,277,0.0
278,278,0.0
279,279,0.0
280,280,0.0
281,281,0.0
282,282,0.0
283,283,0.0
284,284,0.0
285,285,0.0
286,286,0.0
287,287,0.0
288,288,0.0
289,289,8698269.596328614
290,290,1834686.8723079585
291,291,3098764.7089183973
292,292,202531.44326908886
293,293,0.0
294,294,0.0
295,295,0.0
296,296,0.0
297,297,0.0
298,298,0.0
299,299,0.0
300,300,0.0
301,301,1827704.549127324
302,302,599331.362923889
303,303,54319.28433451685
304,304,0.0
305,305,0.0
306,306,0.0
307,307,0.0
308,308,3061628.770510589
309,309,0.0
310,310,0.0
311,311,0.0
312,312,0.0
313,313,0.0
314,314,0.0
315,315,0.0
316,316,0.0
317,317,0.0
318,318,260564.15068175222
319,319,0.0
