,Country Name,Country Code,Indicator Name,Y2018
3,Aruba,ABW,"Labor force, total",0.0
4,Afghanistan,AFG,"Labor force, total",13760401.0
5,Angola,AGO,"Labor force, total",12759956.0
6,Albania,ALB,"Labor force, total",1336470.0
7,Andorra,AND,"Labor force, total",0.0
8,Arab World,ARB,"Labor force, total",136762837.0
9,United Arab Emirates,ARE,"Labor force, total",6820923.0
10,Argentina,ARG,"Labor force, total",20360197.0
11,Armenia,ARM,"Labor force, total",1379542.0
12,American Samoa,ASM,"Labor force, total",0.0
13,Antigua and Barbuda,ATG,"Labor force, total",0.0
14,Australia,AUS,"Labor force, total",13102244.0
15,Austria,AUT,"Labor force, total",4560991.0
16,Azerbaijan,AZE,"Labor force, total",5062611.0
17,Burundi,BDI,"Labor force, total",4867642.0
18,Belgium,BEL,"Labor force, total",5050908.0
19,Benin,BEN,"Labor force, total",4707957.0
20,Burkina Faso,BFA,"Labor force, total",7245224.0
21,Bangladesh,BGD,"Labor force, total",70495225.0
22,Bulgaria,BGR,"Labor force, total",3326595.0
23,Bahrain,BHR,"Labor force, total",922154.0
24,"Bahamas, The",BHS,"Labor force, total",236343.0
25,Bosnia and Herzegovina,BIH,"Labor force, total",1408075.0
26,Belarus,BLR,"Labor force, total",5011695.0
27,Belize,BLZ,"Labor force, total",177289.0
28,Bermuda,BMU,"Labor force, total",0.0
29,Bolivia,BOL,"Labor force, total",5234473.0
30,Brazil,BRA,"Labor force, total",106034877.0
31,Barbados,BRB,"Labor force, total",152053.0
32,Brunei Darussalam,BRN,"Labor force, total",218891.0
33,Bhutan,BTN,"Labor force, total",403811.0
34,Botswana,BWA,"Labor force, total",1160977.0
35,Central African Republic,CAF,"Labor force, total",1952603.0
36,Canada,CAN,"Labor force, total",20266278.0
37,Central Europe and the Baltics,CEB,"Labor force, total",49470423.0
38,Switzerland,CHE,"Labor force, total",4946265.0
39,Channel Islands,CHI,"Labor force, total",82112.0
40,Chile,CHL,"Labor force, total",9076843.0
41,China,CHN,"Labor force, total",787551371.0
42,Cote d'Ivoire,CIV,"Labor force, total",8237161.0
43,Cameroon,CMR,"Labor force, total",10820815.0
44,"Congo, Dem. Rep.",COD,"Labor force, total",28770337.0
45,"Congo, Rep.",COG,"Labor force, total",2164349.0
46,Colombia,COL,"Labor force, total",26635835.0
47,Comoros,COM,"Labor force, total",221722.0
48,Cabo Verde,CPV,"Labor force, total",268112.0
49,Costa Rica,CRI,"Labor force, total",2337785.0
50,Caribbean small states,CSS,"Labor force, total",3424816.0
51,Cuba,CUB,"Labor force, total",5182223.0
52,Curacao,CUW,"Labor force, total",0.0
53,Cayman Islands,CYM,"Labor force, total",0.0
54,Cyprus,CYP,"Labor force, total",614871.0
55,Czech Republic,CZE,"Labor force, total",5392953.0
56,Germany,DEU,"Labor force, total",43507468.0
57,Djibouti,DJI,"Labor force, total",424438.0
58,Dominica,DMA,"Labor force, total",0.0
59,Denmark,DNK,"Labor force, total",2994421.0
60,Dominican Republic,DOM,"Labor force, total",4952136.0
61,Algeria,DZA,"Labor force, total",12238275.0
62,East Asia & Pacific (excluding high income),EAP,"Labor force, total",1132722575.0
63,Early-demographic dividend,EAR,"Labor force, total",1310720561.0
64,East Asia & Pacific,EAS,"Labor force, total",1263861412.0
65,Europe & Central Asia (excluding high income),ECA,"Labor force, total",193046452.0
66,Europe & Central Asia,ECS,"Labor force, total",437664067.0
67,Ecuador,ECU,"Labor force, total",8372021.0
68,"Egypt, Arab Rep.",EGY,"Labor force, total",31853534.0
69,Euro area,EMU,"Labor force, total",164216873.0
70,Eritrea,ERI,"Labor force, total",0.0
71,Spain,ESP,"Labor force, total",22817752.0
72,Estonia,EST,"Labor force, total",694458.0
73,Ethiopia,ETH,"Labor force, total",51815840.0
74,European Union,EUU,"Labor force, total",249128282.0
75,Fragile and conflict affected situations,FCS,"Labor force, total",185511744.0
76,Finland,FIN,"Labor force, total",2700851.0
77,Fiji,FJI,"Labor force, total",374493.0
78,France,FRA,"Labor force, total",30403027.0
79,Faroe Islands,FRO,"Labor force, total",0.0
80,"Micronesia, Fed. Sts.",FSM,"Labor force, total",0.0
81,Gabon,GAB,"Labor force, total",690206.0
82,United Kingdom,GBR,"Labor force, total",33999533.0
83,Georgia,GEO,"Labor force, total",2024923.0
84,Ghana,GHA,"Labor force, total",12259949.0
85,Gibraltar,GIB,"Labor force, total",0.0
86,Guinea,GIN,"Labor force, total",4887409.0
87,"Gambia, The",GMB,"Labor force, total",706908.0
88,Guinea-Bissau,GNB,"Labor force, total",815615.0
89,Equatorial Guinea,GNQ,"Labor force, total",513691.0
90,Greece,GRC,"Labor force, total",4863777.0
91,Grenada,GRD,"Labor force, total",0.0
92,Greenland,GRL,"Labor force, total",0.0
93,Guatemala,GTM,"Labor force, total",7042791.0
94,Guam,GUM,"Labor force, total",80991.0
95,Guyana,GUY,"Labor force, total",321095.0
96,High income,HIC,"Labor force, total",629818271.0
97,"Hong Kong SAR, China",HKG,"Labor force, total",3955126.0
98,Honduras,HND,"Labor force, total",4236042.0
99,Heavily indebted poor countries (HIPC),HPC,"Labor force, total",316680501.0
100,Croatia,HRV,"Labor force, total",1809562.0
101,Haiti,HTI,"Labor force, total",5082250.0
102,Hungary,HUN,"Labor force, total",4693184.0
103,IBRD only,IBD,"Labor force, total",2224130524.0
104,IDA & IBRD total,IBT,"Labor force, total",2865940791.0
105,IDA total,IDA,"Labor force, total",641810267.0
106,IDA blend,IDB,"Labor force, total",193524560.0
107,Indonesia,IDN,"Labor force, total",130710566.0
108,IDA only,IDX,"Labor force, total",448285707.0
109,Isle of Man,IMN,"Labor force, total",0.0
110,India,IND,"Labor force, total",510486051.0
111,Not classified,INX,"Labor force, total",0.0
112,Ireland,IRL,"Labor force, total",2340271.0
113,"Iran, Islamic Rep.",IRN,"Labor force, total",27580400.0
114,Iraq,IRQ,"Labor force, total",10001993.0
115,Iceland,ISL,"Labor force, total",210651.0
116,Israel,ISR,"Labor force, total",4093627.0
117,Italy,ITA,"Labor force, total",25595058.0
118,Jamaica,JAM,"Labor force, total",1503754.0
119,Jordan,JOR,"Labor force, total",2522474.0
120,Japan,JPN,"Labor force, total",66909657.0
121,Kazakhstan,KAZ,"Labor force, total",9253298.0
122,Kenya,KEN,"Labor force, total",20248989.0
123,Kyrgyz Republic,KGZ,"Labor force, total",2629082.0
124,Cambodia,KHM,"Labor force, total",9065942.0
125,Kiribati,KIR,"Labor force, total",0.0
126,St. Kitts and Nevis,KNA,"Labor force, total",0.0
127,"Korea, Rep.",KOR,"Labor force, total",28176473.0
128,Kuwait,KWT,"Labor force, total",2443729.0
129,Latin America & Caribbean (excluding high income),LAC,"Labor force, total",278684704.0
130,Lao PDR,LAO,"Labor force, total",3673664.0
131,Lebanon,LBN,"Labor force, total",2230294.0
132,Liberia,LBR,"Labor force, total",1592558.0
133,Libya,LBY,"Labor force, total",2445052.0
134,St. Lucia,LCA,"Labor force, total",99276.0
135,Latin America & Caribbean,LCN,"Labor force, total",314129299.0
136,Least developed countries: UN classification,LDC,"Labor force, total",422955712.0
137,Low income,LIC,"Labor force, total",311665429.0
138,Liechtenstein,LIE,"Labor force, total",0.0
139,Sri Lanka,LKA,"Labor force, total",8622008.0
140,Lower middle income,LMC,"Labor force, total",1189646891.0
141,Low & middle income,LMY,"Labor force, total",2834847758.0
142,Lesotho,LSO,"Labor force, total",981052.0
143,Late-demographic dividend,LTE,"Labor force, total",1245496915.0
144,Lithuania,LTU,"Labor force, total",1461213.0
145,Luxembourg,LUX,"Labor force, total",292895.0
146,Latvia,LVA,"Labor force, total",995660.0
147,"Macao SAR, China",MAC,"Labor force, total",385555.0
148,St. Martin (French part),MAF,"Labor force, total",0.0
149,Morocco,MAR,"Labor force, total",11955431.0
150,Monaco,MCO,"Labor force, total",0.0
151,Moldova,MDA,"Labor force, total",1253660.0
152,Madagascar,MDG,"Labor force, total",13465271.0
153,Maldives,MDV,"Labor force, total",222333.0
154,Middle East & North Africa,MEA,"Labor force, total",151737676.0
155,Mexico,MEX,"Labor force, total",58929596.0
156,Marshall Islands,MHL,"Labor force, total",0.0
157,Middle income,MIC,"Labor force, total",2523182329.0
158,North Macedonia,MKD,"Labor force, total",957215.0
159,Mali,MLI,"Labor force, total",7117859.0
160,Malta,MLT,"Labor force, total",219439.0
161,Myanmar,MMR,"Labor force, total",24628441.0
162,Middle East & North Africa (excluding high income),MNA,"Labor force, total",118254675.0
163,Montenegro,MNE,"Labor force, total",258402.0
164,Mongolia,MNG,"Labor force, total",1309977.0
165,Northern Mariana Islands,MNP,"Labor force, total",0.0
166,Mozambique,MOZ,"Labor force, total",13298994.0
167,Mauritania,MRT,"Labor force, total",1266081.0
168,Mauritius,MUS,"Labor force, total",605498.0
169,Malawi,MWI,"Labor force, total",8337810.0
170,Malaysia,MYS,"Labor force, total",15722423.0
171,North America,NAC,"Labor force, total",185134222.0
172,Namibia,NAM,"Labor force, total",1000095.0
173,New Caledonia,NCL,"Labor force, total",138335.0
174,Niger,NER,"Labor force, total",8760638.0
175,Nigeria,NGA,"Labor force, total",60724398.0
176,Nicaragua,NIC,"Labor force, total",2991617.0
177,Netherlands,NLD,"Labor force, total",9120786.0
178,Norway,NOR,"Labor force, total",2784780.0
179,Nepal,NPL,"Labor force, total",17162968.0
180,Nauru,NRU,"Labor force, total",0.0
181,New Zealand,NZL,"Labor force, total",2716506.0
182,OECD members,OED,"Labor force, total",642704292.0
183,Oman,OMN,"Labor force, total",2711530.0
184,Other small states,OSS,"Labor force, total",13996788.0
185,Pakistan,PAK,"Labor force, total",69946123.0
186,Panama,PAN,"Labor force, total",2014910.0
187,Peru,PER,"Labor force, total",18329587.0
188,Philippines,PHL,"Labor force, total",43675290.0
189,Palau,PLW,"Labor force, total",0.0
190,Papua New Guinea,PNG,"Labor force, total",2539448.0
191,Poland,POL,"Labor force, total",18344588.0
192,Pre-demographic dividend,PRE,"Labor force, total",338417651.0
193,Puerto Rico,PRI,"Labor force, total",1127144.0
194,"Korea, Dem. PeopleÃs Rep.",PRK,"Labor force, total",16431446.0
195,Portugal,PRT,"Labor force, total",5213680.0
196,Paraguay,PRY,"Labor force, total",3453079.0
197,West Bank and Gaza,PSE,"Labor force, total",1325426.0
198,Pacific island small states,PSS,"Labor force, total",856711.0
199,Post-demographic dividend,PST,"Labor force, total",557852346.0
200,French Polynesia,PYF,"Labor force, total",119935.0
201,Qatar,QAT,"Labor force, total",2016230.0
202,Romania,ROU,"Labor force, total",8988440.0
203,Russian Federation,RUS,"Labor force, total",73592247.0
204,Rwanda,RWA,"Labor force, total",6314637.0
205,South Asia,SAS,"Labor force, total",691098918.0
206,Saudi Arabia,SAU,"Labor force, total",14255369.0
207,Sudan,SDN,"Labor force, total",11650966.0
208,Senegal,SEN,"Labor force, total",4333127.0
209,Singapore,SGP,"Labor force, total",3310065.0
210,Solomon Islands,SLB,"Labor force, total",273508.0
211,Sierra Leone,SLE,"Labor force, total",2611858.0
212,El Salvador,SLV,"Labor force, total",2851567.0
213,San Marino,SMR,"Labor force, total",0.0
214,Somalia,SOM,"Labor force, total",3779857.0
215,Serbia,SRB,"Labor force, total",3171608.0
216,Sub-Saharan Africa (excluding high income),SSA,"Labor force, total",421040435.0
217,South Sudan,SSD,"Labor force, total",5523789.0
218,Sub-Saharan Africa,SSF,"Labor force, total",421040435.0
219,Small states,SST,"Labor force, total",18278315.0
220,Sao Tome and Principe,STP,"Labor force, total",71385.0
221,Suriname,SUR,"Labor force, total",216292.0
222,Slovak Republic,SVK,"Labor force, total",2747167.0
223,Slovenia,SVN,"Labor force, total",1016601.0
224,Sweden,SWE,"Labor force, total",5362132.0
225,Eswatini,SWZ,"Labor force, total",464227.0
226,Sint Maarten (Dutch part),SXM,"Labor force, total",0.0
227,Seychelles,SYC,"Labor force, total",0.0
228,Syrian Arab Republic,SYR,"Labor force, total",4834126.0
229,Turks and Caicos Islands,TCA,"Labor force, total",0.0
230,Chad,TCD,"Labor force, total",5814370.0
231,East Asia & Pacific (IDA & IBRD countries),TEA,"Labor force, total",1116291129.0
232,Europe & Central Asia (IDA & IBRD countries),TEC,"Labor force, total",213200602.0
233,Togo,TGO,"Labor force, total",3643098.0
234,Thailand,THA,"Labor force, total",38765994.0
235,Tajikistan,TJK,"Labor force, total",2569111.0
236,Turkmenistan,TKM,"Labor force, total",2636948.0
237,Latin America & the Caribbean (IDA & IBRD countries),TLA,"Labor force, total",307380459.0
238,Timor-Leste,TLS,"Labor force, total",291623.0
239,Middle East & North Africa (IDA & IBRD countries),TMN,"Labor force, total",116929249.0
240,Tonga,TON,"Labor force, total",41852.0
241,South Asia (IDA & IBRD),TSA,"Labor force, total",691098918.0
242,Sub-Saharan Africa (IDA & IBRD countries),TSS,"Labor force, total",421040435.0
243,Trinidad and Tobago,TTO,"Labor force, total",660786.0
244,Tunisia,TUN,"Labor force, total",4114586.0
245,Turkey,TUR,"Labor force, total",32454053.0
246,Tuvalu,TUV,"Labor force, total",0.0
247,Tanzania,TZA,"Labor force, total",27190295.0
248,Uganda,UGA,"Labor force, total",16532793.0
249,Ukraine,UKR,"Labor force, total",20274582.0
250,Upper middle income,UMC,"Labor force, total",1333535438.0
251,Uruguay,URY,"Labor force, total",1765243.0
252,United States,USA,"Labor force, total",164867943.0
253,Uzbekistan,UZB,"Labor force, total",15457895.0
254,St. Vincent and the Grenadines,VCT,"Labor force, total",57928.0
255,"Venezuela, RB",VEN,"Labor force, total",14643191.0
256,British Virgin Islands,VGB,"Labor force, total",0.0
257,Virgin Islands (U.S.),VIR,"Labor force, total",51077.0
258,Vietnam,VNM,"Labor force, total",57499679.0
259,Vanuatu,VUT,"Labor force, total",127650.0
260,World,WLD,"Labor force, total",3464666029.0
261,Samoa,WSM,"Labor force, total",39207.0
262,Kosovo,XKX,"Labor force, total",0.0
263,"Yemen, Rep.",YEM,"Labor force, total",6728645.0
264,South Africa,ZAF,"Labor force, total",22702855.0
265,Zambia,ZMB,"Labor force, total",7353191.0
266,Zimbabwe,ZWE,"Labor force, total",8341968.0
