CountryID,COUNTRY-NAME1,Country-Name1,Country-Name2,alpha-2,alpha-3,iso_3166-2,Count
1.0,INDONESIA,Indonesia,Indonesia,ID,IDN,ISO 3166-2:ID,326.0
2.0,MALAYSIA,Malaysia,Malaysia,MY,MYS,ISO 3166-2:MY,55.0
3.0,CHILE,Chile,Chile,CL,CHL,ISO 3166-2:CL,151.0
4.0,BOLIVIA,Bolivia,Bolivia (Plurinational State of),BO,BOL,ISO 3166-2:BO,192.0
5.0,PERU,Peru,Peru,PE,PER,ISO 3166-2:PE,219.0
6.0,ARGENTINA,Argentina,Argentina,AR,ARG,ISO 3166-2:AR,579.0
9.0,INDIA,India,India,IN,IND,ISO 3166-2:IN,579.0
10.0,CHINA,China,China,CN,CHN,ISO 3166-2:CN,1971.0
11.0,ISRAEL,Israel,Israel,IL,ISR,ISO 3166-2:IL,7.0
13.0,LEBANON,Lebanon,Lebanon,LB,LBN,ISO 3166-2:LB,1.0
14.0,ETHIOPIA,Ethiopia,Ethiopia,ET,ETH,ISO 3166-2:ET,191.0
15.0,S. SUDAN,S. Sudan,South Sudan,SS,SSD,ISO 3166-2:SS,105.0
16.0,SOMALIA,Somalia,Somalia,SO,SOM,ISO 3166-2:SO,78.0
17.0,KENYA,Kenya,Kenya,KE,KEN,ISO 3166-2:KE,100.0
18.0,PAKISTAN,Pakistan,Pakistan,PK,PAK,ISO 3166-2:PK,167.0
19.0,MALAWI,Malawi,Malawi,MW,MWI,ISO 3166-2:MW,21.0
20.0,TANZANIA,Tanzania,"Tanzania, United Republic of",TZ,TZA,ISO 3166-2:TZ,156.0
21.0,SYRIA,Syria,Syrian Arab Republic,SY,SYR,ISO 3166-2:SY,39.0
22.0,SOMALILAND,Somaliland,,,,,31.0
23.0,FRANCE,France,France,FR,FRA,ISO 3166-2:FR,150.0
24.0,SURINAME,Suriname,Suriname,SR,SUR,ISO 3166-2:SR,24.0
25.0,GUYANA,Guyana,Guyana,GY,GUY,ISO 3166-2:GY,37.0
26.0,SOUTH KOREA,South Korea,"Korea, Republic of",KR,KOR,ISO 3166-2:KR,21.0
27.0,NORTH KOREA,North Korea,Korea (Democratic People's Republic of),KP,PRK,ISO 3166-2:KP,27.0
28.0,MOROCCO,Morocco,Morocco,MA,MAR,ISO 3166-2:MA,117.0
29.0,W. SAHARA,W. Sahara,Western Sahara,EH,ESH,ISO 3166-2:EH,19.0
30.0,COSTA RICA,Costa Rica,Costa Rica,CR,CRI,ISO 3166-2:CR,7.0
31.0,NICARAGUA,Nicaragua,Nicaragua,NI,NIC,ISO 3166-2:NI,23.0
32.0,CONGO,Congo,Congo,CG,COG,ISO 3166-2:CG,58.0
33.0,DEM. REP. CONGO,Dem. Rep. Congo,"Congo, Democratic Republic of the",CD,COD,ISO 3166-2:CD,392.0
34.0,BHUTAN,Bhutan,Bhutan,BT,BTN,ISO 3166-2:BT,8.0
35.0,UKRAINE,Ukraine,Ukraine,UA,UKR,ISO 3166-2:UA,146.0
36.0,BELARUS,Belarus,Belarus,BY,BLR,ISO 3166-2:BY,59.0
37.0,NAMIBIA,Namibia,Namibia,,NAM,ISO 3166-2:NA,150.0
38.0,SOUTH AFRICA,South Africa,South Africa,ZA,ZAF,ISO 3166-2:ZA,231.0
41.0,OMAN,Oman,Oman,OM,OMN,ISO 3166-2:OM,57.0
42.0,UZBEKISTAN,Uzbekistan,Uzbekistan,UZ,UZB,ISO 3166-2:UZ,98.0
43.0,KAZAKHSTAN,Kazakhstan,Kazakhstan,KZ,KAZ,ISO 3166-2:KZ,685.0
44.0,TAJIKISTAN,Tajikistan,Tajikistan,TJ,TJK,ISO 3166-2:TJ,33.0
45.0,LITHUANIA,Lithuania,Lithuania,LT,LTU,ISO 3166-2:LT,18.0
46.0,BRAZIL,Brazil,Brazil,BR,BRA,ISO 3166-2:BR,1456.0
47.0,URUGUAY,Uruguay,Uruguay,UY,URY,ISO 3166-2:UY,38.0
48.0,MONGOLIA,Mongolia,Mongolia,MN,MNG,ISO 3166-2:MN,382.0
49.0,RUSSIA,Russia,Russian Federation,RU,RUS,ISO 3166-2:RU,6065.0
50.0,CZECHIA,Czechia,Czechia,CZ,CZE,ISO 3166-2:CZ,18.0
51.0,GERMANY,Germany,Germany,DE,DEU,ISO 3166-2:DE,98.0
52.0,ESTONIA,Estonia,Estonia,EE,EST,ISO 3166-2:EE,16.0
53.0,LATVIA,Latvia,Latvia,LV,LVA,ISO 3166-2:LV,19.0
54.0,NORWAY,Norway,Norway,NO,NOR,ISO 3166-2:NO,172.0
55.0,SWEDEN,Sweden,Sweden,SE,SWE,ISO 3166-2:SE,167.0
56.0,FINLAND,Finland,Finland,FI,FIN,ISO 3166-2:FI,126.0
57.0,VIETNAM,Vietnam,Viet Nam,VN,VNM,ISO 3166-2:VN,57.0
58.0,CAMBODIA,Cambodia,Cambodia,KH,KHM,ISO 3166-2:KH,31.0
59.0,LUXEMBOURG,Luxembourg,Luxembourg,LU,LUX,ISO 3166-2:LU,1.0
60.0,UNITED ARAB EMIRATES,United Arab Emirates,United Arab Emirates,AE,ARE,ISO 3166-2:AE,14.0
61.0,BELGIUM,Belgium,Belgium,BE,BEL,ISO 3166-2:BE,8.0
62.0,GEORGIA,Georgia,Georgia,GE,GEO,ISO 3166-2:GE,16.0
63.0,MACEDONIA,Macedonia,,,,,4.0
64.0,ALBANIA,Albania,Albania,AL,ALB,ISO 3166-2:AL,7.0
65.0,AZERBAIJAN,Azerbaijan,Azerbaijan,AZ,AZE,ISO 3166-2:AZ,16.0
66.0,KOSOVO,Kosovo,,,,,3.0
67.0,TURKEY,Turkey,Turkey,TR,TUR,ISO 3166-2:TR,171.0
68.0,SPAIN,Spain,Spain,ES,ESP,ISO 3166-2:ES,111.0
69.0,LAOS,Laos,Lao People's Democratic Republic,LA,LAO,ISO 3166-2:LA,39.0
70.0,KYRGYZSTAN,Kyrgyzstan,Kyrgyzstan,KG,KGZ,ISO 3166-2:KG,43.0
71.0,ARMENIA,Armenia,Armenia,AM,ARM,ISO 3166-2:AM,8.0
72.0,DENMARK,Denmark,Denmark,DK,DNK,ISO 3166-2:DK,16.0
73.0,LIBYA,Libya,Libya,LY,LBY,ISO 3166-2:LY,305.0
74.0,TUNISIA,Tunisia,Tunisia,TN,TUN,ISO 3166-2:TN,33.0
75.0,ROMANIA,Romania,Romania,RO,ROU,ISO 3166-2:RO,56.0
76.0,HUNGARY,Hungary,Hungary,HU,HUN,ISO 3166-2:HU,22.0
77.0,SLOVAKIA,Slovakia,Slovakia,SK,SVK,ISO 3166-2:SK,15.0
78.0,POLAND,Poland,Poland,PL,POL,ISO 3166-2:PL,85.0
79.0,IRELAND,Ireland,Ireland,IE,IRL,ISO 3166-2:IE,19.0
80.0,UNITED KINGDOM,United Kingdom,United Kingdom of Great Britain and Northern Ireland,GB,GBR,ISO 3166-2:GB,69.0
81.0,GREECE,Greece,Greece,GR,GRC,ISO 3166-2:GR,26.0
82.0,ZAMBIA,Zambia,Zambia,ZM,ZMB,ISO 3166-2:ZM,133.0
83.0,SIERRA LEONE,Sierra Leone,Sierra Leone,SL,SLE,ISO 3166-2:SL,12.0
84.0,GUINEA,Guinea,Guinea,GN,GIN,ISO 3166-2:GN,39.0
85.0,LIBERIA,Liberia,Liberia,LR,LBR,ISO 3166-2:LR,15.0
86.0,CENTRAL AFRICAN REP.,Central African Rep.,Central African Republic,CF,CAF,ISO 3166-2:CF,105.0
87.0,SUDAN,Sudan,Sudan,SD,SDN,ISO 3166-2:SD,324.0
88.0,DJIBOUTI,Djibouti,Djibouti,DJ,DJI,ISO 3166-2:DJ,4.0
89.0,ERITREA,Eritrea,Eritrea,ER,ERI,ISO 3166-2:ER,25.0
90.0,AUSTRIA,Austria,Austria,AT,AUT,ISO 3166-2:AT,22.0
91.0,IRAQ,Iraq,Iraq,IQ,IRQ,ISO 3166-2:IQ,86.0
92.0,ITALY,Italy,Italy,IT,ITA,ISO 3166-2:IT,73.0
93.0,SWITZERLAND,Switzerland,Switzerland,CH,CHE,ISO 3166-2:CH,9.0
94.0,IRAN,Iran,Iran (Islamic Republic of),IR,IRN,ISO 3166-2:IR,328.0
95.0,NETHERLANDS,Netherlands,Netherlands,NL,NLD,ISO 3166-2:NL,10.0
97.0,C??TE D'IVOIRE,C??te d'Ivoire,C么te d'Ivoire,CI,CIV,ISO 3166-2:CI,56.0
98.0,SERBIA,Serbia,Serbia,RS,SRB,ISO 3166-2:RS,19.0
99.0,MALI,Mali,Mali,ML,MLI,ISO 3166-2:ML,222.0
100.0,SENEGAL,Senegal,Senegal,SN,SEN,ISO 3166-2:SN,39.0
101.0,NIGERIA,Nigeria,Nigeria,NG,NGA,ISO 3166-2:NG,155.0
102.0,BENIN,Benin,Benin,BJ,BEN,ISO 3166-2:BJ,18.0
103.0,ANGOLA,Angola,Angola,AO,AGO,ISO 3166-2:AO,213.0
104.0,CROATIA,Croatia,Croatia,HR,HRV,ISO 3166-2:HR,11.0
105.0,SLOVENIA,Slovenia,Slovenia,SI,SVN,ISO 3166-2:SI,5.0
106.0,QATAR,Qatar,Qatar,QA,QAT,ISO 3166-2:QA,2.0
107.0,SAUDI ARABIA,Saudi Arabia,Saudi Arabia,SA,SAU,ISO 3166-2:SA,350.0
108.0,BOTSWANA,Botswana,Botswana,BW,BWA,ISO 3166-2:BW,106.0
109.0,ZIMBABWE,Zimbabwe,Zimbabwe,ZW,ZWE,ISO 3166-2:ZW,69.0
110.0,BULGARIA,Bulgaria,Bulgaria,BG,BGR,ISO 3166-2:BG,29.0
111.0,THAILAND,Thailand,Thailand,TH,THA,ISO 3166-2:TH,89.0
113.0,HAITI,Haiti,Haiti,HT,HTI,ISO 3166-2:HT,3.0
114.0,DOMINICAN REP.,Dominican Rep.,Dominican Republic,DO,DOM,ISO 3166-2:DO,9.0
115.0,CHAD,Chad,Chad,TD,TCD,ISO 3166-2:TD,221.0
116.0,KUWAIT,Kuwait,Kuwait,KW,KWT,ISO 3166-2:KW,4.0
117.0,EL SALVADOR,El Salvador,El Salvador,SV,SLV,ISO 3166-2:SV,4.0
118.0,GUATEMALA,Guatemala,Guatemala,GT,GTM,ISO 3166-2:GT,19.0
119.0,TIMOR-LESTE,Timor-Leste,Timor-Leste,TL,TLS,ISO 3166-2:TL,2.0
120.0,BRUNEI,Brunei,Brunei Darussalam,BN,BRN,ISO 3166-2:BN,1.0
122.0,ALGERIA,Algeria,Algeria,DZ,DZA,ISO 3166-2:DZ,439.0
123.0,MOZAMBIQUE,Mozambique,Mozambique,MZ,MOZ,ISO 3166-2:MZ,141.0
124.0,ESWATINI,eSwatini,Eswatini,SZ,SWZ,ISO 3166-2:SZ,3.0
125.0,BURUNDI,Burundi,Burundi,BI,BDI,ISO 3166-2:BI,5.0
126.0,RWANDA,Rwanda,Rwanda,RW,RWA,ISO 3166-2:RW,4.0
127.0,MYANMAR,Myanmar,Myanmar,MM,MMR,ISO 3166-2:MM,122.0
128.0,BANGLADESH,Bangladesh,Bangladesh,BD,BGD,ISO 3166-2:BD,24.0
130.0,AFGHANISTAN,Afghanistan,Afghanistan,AF,AFG,ISO 3166-2:AF,127.0
131.0,MONTENEGRO,Montenegro,Montenegro,ME,MNE,ISO 3166-2:ME,3.0
132.0,BOSNIA AND HERZ.,Bosnia and Herz.,Bosnia and Herzegovina,BA,BIH,ISO 3166-2:BA,13.0
133.0,UGANDA,Uganda,Uganda,UG,UGA,ISO 3166-2:UG,40.0
135.0,CUBA,Cuba,Cuba,CU,CUB,ISO 3166-2:CU,18.0
136.0,HONDURAS,Honduras,Honduras,HN,HND,ISO 3166-2:HN,18.0
137.0,ECUADOR,Ecuador,Ecuador,EC,ECU,ISO 3166-2:EC,44.0
138.0,COLOMBIA,Colombia,Colombia,CO,COL,ISO 3166-2:CO,195.0
139.0,PARAGUAY,Paraguay,Paraguay,PY,PRY,ISO 3166-2:PY,74.0
140.0,PORTUGAL,Portugal,Portugal,PT,PRT,ISO 3166-2:PT,18.0
141.0,MOLDOVA,Moldova,"Moldova, Republic of",MD,MDA,ISO 3166-2:MD,8.0
142.0,TURKMENISTAN,Turkmenistan,Turkmenistan,TM,TKM,ISO 3166-2:TM,100.0
143.0,JORDAN,Jordan,Jordan,JO,JOR,ISO 3166-2:JO,17.0
144.0,NEPAL,Nepal,Nepal,NP,NPL,ISO 3166-2:NP,27.0
145.0,LESOTHO,Lesotho,Lesotho,LS,LSO,ISO 3166-2:LS,6.0
146.0,CAMEROON,Cameroon,Cameroon,CM,CMR,ISO 3166-2:CM,75.0
147.0,GABON,Gabon,Gabon,GA,GAB,ISO 3166-2:GA,44.0
148.0,NIGER,Niger,Niger,NE,NER,ISO 3166-2:NE,211.0
149.0,BURKINA FASO,Burkina Faso,Burkina Faso,BF,BFA,ISO 3166-2:BF,49.0
150.0,TOGO,Togo,Togo,TG,TGO,ISO 3166-2:TG,7.0
151.0,GHANA,Ghana,Ghana,GH,GHA,ISO 3166-2:GH,39.0
152.0,GUINEA-BISSAU,Guinea-Bissau,Guinea-Bissau,GW,GNB,ISO 3166-2:GW,5.0
154.0,UNITED STATES OF AMERICA,United States of America,United States of America,US,USA,ISO 3166-2:US,2317.0
155.0,CANADA,Canada,Canada,CA,CAN,ISO 3166-2:CA,3546.0
156.0,MEXICO,Mexico,Mexico,MX,MEX,ISO 3166-2:MX,359.0
157.0,BELIZE,Belize,Belize,BZ,BLZ,ISO 3166-2:BZ,3.0
158.0,PANAMA,Panama,Panama,PA,PAN,ISO 3166-2:PA,13.0
159.0,VENEZUELA,Venezuela,Venezuela (Bolivarian Republic of),VE,VEN,ISO 3166-2:VE,154.0
160.0,PAPUA NEW GUINEA,Papua New Guinea,Papua New Guinea,PG,PNG,ISO 3166-2:PG,79.0
161.0,EGYPT,Egypt,Egypt,EG,EGY,ISO 3166-2:EG,190.0
162.0,YEMEN,Yemen,Yemen,YE,YEM,ISO 3166-2:YE,80.0
163.0,MAURITANIA,Mauritania,Mauritania,MR,MRT,ISO 3166-2:MR,182.0
164.0,EQ. GUINEA,Eq. Guinea,Equatorial Guinea,GQ,GNQ,ISO 3166-2:GQ,5.0
170.0,SIACHEN GLACIER,Siachen Glacier,Seychelles,SC,SYC,ISO 3166-2:SC,1.0
171.0,BAIKONUR,Baikonur,,,,,1.0
172.0,AKROTIRI,Akrotiri,,,,,1.0
173.0,ANTARCTICA,Antarctica,Antarctica,AQ,ATA,ISO 3166-2:AQ,12528.0
174.0,AUSTRALIA,Australia,Australia,AU,AUS,ISO 3166-2:AU,1441.0
175.0,GREENLAND,Greenland,Greenland,GL,GRL,ISO 3166-2:GL,1381.0
176.0,FIJI,Fiji,Fiji,FJ,FJI,ISO 3166-2:FJ,4.0
177.0,NEW ZEALAND,New Zealand,New Zealand,NZ,NZL,ISO 3166-2:NZ,60.0
178.0,NEW CALEDONIA,New Caledonia,New Caledonia,NC,NCL,ISO 3166-2:NC,3.0
179.0,MADAGASCAR,Madagascar,Madagascar,MG,MDG,ISO 3166-2:MG,106.0
180.0,PHILIPPINES,Philippines,Philippines,PH,PHL,ISO 3166-2:PH,45.0
181.0,SRI LANKA,Sri Lanka,Sri Lanka,LK,LKA,ISO 3166-2:LK,13.0
183.0,ARUBA,Aruba,Aruba,AW,ABW,ISO 3166-2:AW,1.0
184.0,BAHAMAS,Bahamas,Bahamas,BS,BHS,ISO 3166-2:BS,1.0
186.0,TAIWAN,Taiwan,"Taiwan, Province of China",TW,TWN,ISO 3166-2:TW,7.0
187.0,JAPAN,Japan,Japan,JP,JPN,ISO 3166-2:JP,81.0
189.0,ICELAND,Iceland,Iceland,IS,ISL,ISO 3166-2:IS,43.0
191.0,FR. POLYNESIA,Fr. Polynesia,French Polynesia,PF,PYF,ISO 3166-2:PF,1.0
192.0,FR. S. ANTARCTIC LANDS,Fr. S. Antarctic Lands,French Southern Territories,TF,ATF,ISO 3166-2:TF,3.0
199.0,BARBADOS,Barbados,Barbados,BB,BRB,ISO 3166-2:BB,1.0
208.0,PUERTO RICO,Puerto Rico,Puerto Rico,PR,PRI,ISO 3166-2:PR,2.0
211.0,JAMAICA,Jamaica,Jamaica,JM,JAM,ISO 3166-2:JM,2.0
219.0,CABO VERDE,Cabo Verde,Cabo Verde,CV,CPV,ISO 3166-2:CV,1.0
223.0,ISLE OF MAN,Isle of Man,Isle of Man,IM,IMN,ISO 3166-2:IM,1.0
228.0,SINGAPORE,Singapore,Singapore,SG,SGP,ISO 3166-2:SG,1.0
232.0,WALLIS AND FUTUNA IS.,Wallis and Futuna Is.,Wallis and Futuna,WF,WLF,ISO 3166-2:WF,1.0
234.0,SOLOMON IS.,Solomon Is.,Solomon Islands,SB,SLB,ISO 3166-2:SB,4.0
239.0,S. GEO. AND THE IS.,S. Geo. and the Is.,South Georgia and the South Sandwich Islands,GS,SGS,ISO 3166-2:GS,1.0
240.0,FALKLAND IS.,Falkland Is.,Falkland Islands (Malvinas),FK,FLK,ISO 3166-2:FK,3.0
241.0,VANUATU,Vanuatu,Vanuatu,VU,VUT,ISO 3166-2:VU,3.0
