 154, 3, 21 
 153, 14, 3 
 3, 13, 22 
 2, 0, 1 
 150, 7, 14 
 149, 64, 7 
 7, 66, 12 
 6, 4, 5 
 13, 11, 25 
 12, 72, 11 
 11, 74, 26 
 10, 8, 9 
 9, 15, 6 
 8, 2, 15 
 15, 1, 4 
 14, 12, 13 
 138, 19, 37 
 137, 30, 19 
 19, 29, 38 
 18, 16, 17 
 134, 23, 30 
 133, 0, 23 
 23, 2, 28 
 22, 20, 21 
 29, 27, 41 
 28, 8, 27 
 27, 10, 42 
 26, 24, 25 
 25, 31, 22 
 24, 18, 31 
 31, 17, 20 
 30, 28, 29 
 122, 35, 53 
 121, 46, 35 
 35, 45, 54 
 34, 32, 33 
 118, 39, 46 
 117, 16, 39 
 39, 18, 44 
 38, 36, 37 
 45, 43, 57 
 44, 24, 43 
 43, 26, 58 
 42, 40, 41 
 41, 47, 38 
 40, 34, 47 
 47, 33, 36 
 46, 44, 45 
 106, 51, 69 
 105, 62, 51 
 51, 61, 70 
 50, 48, 49 
 102, 55, 62 
 101, 32, 55 
 55, 34, 60 
 54, 52, 53 
 61, 59, 73 
 60, 40, 59 
 59, 42, 74 
 58, 56, 57 
 57, 63, 54 
 56, 50, 63 
 63, 49, 52 
 62, 60, 61 
 90, 67, 5 
 89, 78, 67 
 67, 77, 6 
 66, 64, 65 
 86, 71, 78 
 85, 48, 71 
 71, 50, 76 
 70, 68, 69 
 77, 75, 9 
 76, 56, 75 
 75, 58, 10 
 74, 72, 73 
 73, 79, 70 
 72, 66, 79 
 79, 65, 68 
 78, 76, 77 
 176, 83, 165 
 178, 94, 83 
 83, 93, 166 
 82, 80, 81 
 184, 87, 94 
 186, 69, 87 
 87, 68, 92 
 86, 84, 85 
 93, 91, 169 
 92, 65, 91 
 91, 64, 170 
 90, 88, 89 
 89, 95, 86 
 88, 82, 95 
 95, 81, 84 
 94, 92, 93 
 192, 99, 181 
 194, 110, 99 
 99, 109, 182 
 98, 96, 97 
 200, 103, 110 
 202, 53, 103 
 103, 52, 108 
 102, 100, 101 
 109, 107, 185 
 108, 49, 107 
 107, 48, 186 
 106, 104, 105 
 105, 111, 102 
 104, 98, 111 
 111, 97, 100 
 110, 108, 109 
 208, 115, 197 
 210, 126, 115 
 115, 125, 198 
 114, 112, 113 
 216, 119, 126 
 218, 37, 119 
 119, 36, 124 
 118, 116, 117 
 125, 123, 201 
 124, 33, 123 
 123, 32, 202 
 122, 120, 121 
 121, 127, 118 
 120, 114, 127 
 127, 113, 116 
 126, 124, 125 
 224, 131, 213 
 226, 142, 131 
 131, 141, 214 
 130, 128, 129 
 232, 135, 142 
 234, 21, 135 
 135, 20, 140 
 134, 132, 133 
 141, 139, 217 
 140, 17, 139 
 139, 16, 218 
 138, 136, 137 
 137, 143, 134 
 136, 130, 143 
 143, 129, 132 
 142, 140, 141 
 160, 147, 229 
 162, 158, 147 
 147, 157, 230 
 146, 144, 145 
 168, 151, 158 
 170, 5, 151 
 151, 4, 156 
 150, 148, 149 
 157, 155, 233 
 156, 1, 155 
 155, 0, 234 
 154, 152, 153 
 153, 159, 150 
 152, 146, 159 
 159, 145, 148 
 158, 156, 157 
 245, 163, 144 
 244, 174, 163 
 163, 173, 145 
 162, 160, 161 
 241, 167, 174 
 240, 80, 167 
 167, 82, 172 
 166, 164, 165 
 173, 171, 148 
 172, 88, 171 
 171, 90, 149 
 170, 168, 169 
 169, 175, 166 
 168, 162, 175 
 175, 161, 164 
 174, 172, 173 
 309, 179, 80 
 308, 190, 179 
 179, 189, 81 
 178, 176, 177 
 305, 183, 190 
 304, 96, 183 
 183, 98, 188 
 182, 180, 181 
 189, 187, 84 
 188, 104, 187 
 187, 106, 85 
 186, 184, 185 
 185, 191, 182 
 184, 178, 191 
 191, 177, 180 
 190, 188, 189 
 293, 195, 96 
 292, 206, 195 
 195, 205, 97 
 194, 192, 193 
 289, 199, 206 
 288, 112, 199 
 199, 114, 204 
 198, 196, 197 
 205, 203, 100 
 204, 120, 203 
 203, 122, 101 
 202, 200, 201 
 201, 207, 198 
 200, 194, 207 
 207, 193, 196 
 206, 204, 205 
 277, 211, 112 
 276, 222, 211 
 211, 221, 113 
 210, 208, 209 
 273, 215, 222 
 272, 128, 215 
 215, 130, 220 
 214, 212, 213 
 221, 219, 116 
 220, 136, 219 
 219, 138, 117 
 218, 216, 217 
 217, 223, 214 
 216, 210, 223 
 223, 209, 212 
 222, 220, 221 
 261, 227, 128 
 260, 238, 227 
 227, 237, 129 
 226, 224, 225 
 257, 231, 238 
 256, 144, 231 
 231, 146, 236 
 230, 228, 229 
 237, 235, 132 
 236, 152, 235 
 235, 154, 133 
 234, 232, 233 
 233, 239, 230 
 232, 226, 239 
 239, 225, 228 
 238, 236, 237 
 165, 243, 309 
 164, 254, 243 
 243, 253, 310 
 242, 240, 241 
 161, 247, 254 
 160, 256, 247 
 247, 258, 252 
 246, 244, 245 
 253, 251, 313 
 252, 264, 251 
 251, 266, 314 
 250, 248, 249 
 249, 255, 246 
 248, 242, 255 
 255, 241, 244 
 254, 252, 253 
 229, 259, 245 
 228, 270, 259 
 259, 269, 246 
 258, 256, 257 
 225, 263, 270 
 224, 272, 263 
 263, 274, 268 
 262, 260, 261 
 269, 267, 249 
 268, 280, 267 
 267, 282, 250 
 266, 264, 265 
 265, 271, 262 
 264, 258, 271 
 271, 257, 260 
 270, 268, 269 
 213, 275, 261 
 212, 286, 275 
 275, 285, 262 
 274, 272, 273 
 209, 279, 286 
 208, 288, 279 
 279, 290, 284 
 278, 276, 277 
 285, 283, 265 
 284, 296, 283 
 283, 298, 266 
 282, 280, 281 
 281, 287, 278 
 280, 274, 287 
 287, 273, 276 
 286, 284, 285 
 197, 291, 277 
 196, 302, 291 
 291, 301, 278 
 290, 288, 289 
 193, 295, 302 
 192, 304, 295 
 295, 306, 300 
 294, 292, 293 
 301, 299, 281 
 300, 312, 299 
 299, 314, 282 
 298, 296, 297 
 297, 303, 294 
 296, 290, 303 
 303, 289, 292 
 302, 300, 301 
 181, 307, 293 
 180, 318, 307 
 307, 317, 294 
 306, 304, 305 
 177, 311, 318 
 176, 240, 311 
 311, 242, 316 
 310, 308, 309 
 317, 315, 297 
 316, 248, 315 
 315, 250, 298 
 314, 312, 313 
 313, 319, 310 
 312, 306, 319 
 319, 305, 308 
 318, 316, 317 
