,TriangleID,Population2017
0,0,0.0
1,1,101061946.92063494
2,2,1381831.973619126
3,3,26633189.49166946
4,4,202626573.43180564
5,5,196473386.27224812
6,6,27374439.41445988
7,7,187108665.53355592
8,8,13699196.290189613
9,9,16558158.99422918
10,10,1024461.6356141797
11,11,12007643.356966197
12,12,12446187.227565251
13,13,7004458.624896949
14,14,219633210.1771138
15,15,91023663.3124826
16,16,0.0
17,17,0.0
18,18,1473456.6273032574
19,19,0.0
20,20,0.0
21,21,0.0
22,22,166772.82440230835
23,23,0.0
24,24,37086416.97927236
25,25,9183244.773962194
26,26,0.0
27,27,18711683.514352318
28,28,2012284.5506060973
29,29,19623329.78871779
30,30,0.0
31,31,6174567.684074234
32,32,0.0
33,33,31760829.285716467
34,34,3769315.312163511
35,35,6391959.03855816
36,36,50590858.74082686
37,37,15133390.487937648
38,38,26814668.951496348
39,39,49914575.99004573
40,40,1894979.8128768362
41,41,6293997.310772701
42,42,2552726.234764529
43,43,4296921.400505327
44,44,6563188.015263967
45,45,3260870.3172588833
46,46,50532979.60020652
47,47,9341111.280575706
48,48,25044352.593438633
49,49,61121099.328235544
50,50,232588817.11199704
51,51,63404284.864344224
52,52,0.0
53,53,0.0
54,54,51759.846305696556
55,55,0.0
56,56,6654408.518869237
57,57,89201.60614990821
58,58,753566.9555259924
59,59,261478.00087567148
60,60,122.02244750181028
61,61,76480771.29068588
62,62,0.0
63,63,1266137.105263158
64,64,242756729.07662198
65,65,108610375.26700117
66,66,72496890.69789994
67,67,211219313.7967056
68,68,129390988.11886221
69,69,25903570.59357365
70,70,123502683.00891429
71,71,70180541.42240839
72,72,15771944.250618298
73,73,15217257.13258435
74,74,974568.0082823676
75,75,4193145.2992580384
76,76,20294551.62570444
77,77,13038370.676946223
78,78,37005459.18693714
79,79,11509827.924232014
80,80,6513341.179245284
81,81,16848989.365641024
82,82,0.0
83,83,1447409.1509433966
84,84,93195301.10368598
85,85,64493335.753440954
86,86,45605906.49884059
87,87,43515486.63808967
88,88,111020114.15544042
89,89,154093861.75740343
90,90,536519447.9615237
91,91,421044373.1128417
92,92,43987336.88170731
93,93,0.0
94,94,69164141.26114511
95,95,9683815.711538462
96,96,0.0
97,97,0.0
98,98,0.0
99,99,0.0
100,100,0.0
101,101,0.0
102,102,0.0
103,103,0.0
104,104,132175666.40701696
105,105,26599935.942969404
106,106,17853787.94968725
107,107,25467665.118297186
108,108,8748668.657492658
109,109,41108597.89107514
110,110,0.0
111,111,22267594.928719927
112,112,0.0
113,113,0.0
114,114,25476990.582080018
115,115,377837.6818181819
116,116,0.0
117,117,6835939.398328691
118,118,73048520.60033324
119,119,25185039.88857939
120,120,33416457.20329671
121,121,14226352.684074234
122,122,0.0
123,123,31791739.0
124,124,28269609.704128742
125,125,23079297.2002997
126,126,0.0
127,127,36649149.63565483
128,128,0.0
129,129,0.0
130,130,0.0
131,131,0.0
132,132,0.0
133,133,0.0
134,134,0.0
135,135,0.0
136,136,0.0
137,137,0.0
138,138,0.0
139,139,0.0
140,140,561324.3349158395
141,141,0.0
142,142,0.0
143,143,0.0
144,144,3141389.4795281054
145,145,74500634.56441717
146,146,57118110.07764399
147,147,8925871.933424301
148,148,74800182.61926639
149,149,196989670.05106705
150,150,133645383.05428717
151,151,151787220.37460148
152,152,0.0
153,153,1565256.7530864198
154,154,0.0
155,155,0.0
156,156,20983618.0
157,157,1619579.0122699386
158,158,60846993.12852453
159,159,79271445.77777778
160,160,2748715.7945870925
161,161,0.0
162,162,20244737.653374232
163,163,0.0
164,164,0.0
165,165,0.0
166,166,0.0
167,167,0.0
168,168,58197620.35277671
169,169,39947352.35924007
170,170,193496764.09241837
171,171,2750383.05310173
172,172,0.0
173,173,33201369.751533736
174,174,0.0
175,175,0.0
176,176,17610144.66981132
177,177,54767579.544444144
178,178,76912879.33903839
179,179,29267350.468924396
180,180,0.0
181,181,0.0
182,182,0.0
183,183,0.0
184,184,74651109.65834469
185,185,128086192.53862168
186,186,16609410.594432596
187,187,56129904.20891739
188,188,7478986.105359429
189,189,92840991.06754386
190,190,15345235.475232832
191,191,39080461.41437345
192,192,0.0
193,193,15667872.460164836
194,194,16099098.307692308
195,195,5318452.119505494
196,196,24039072.584922317
197,197,0.0
198,198,33947113.70275102
199,199,8978882.093909705
200,200,2587355.085164835
201,201,40324847.06298882
202,202,447370.0866666667
203,203,9162296.53920899
204,204,41636645.17216116
205,205,34641809.75137363
206,206,40298042.56939926
207,207,39558293.50915751
208,208,0.0
209,209,0.0
210,210,0.0
211,211,0.0
212,212,0.0
213,213,0.0
214,214,283007.0
215,215,0.0
216,216,0.0
217,217,0.0
218,218,0.0
219,219,0.0
220,220,0.0
221,221,0.0
222,222,0.0
223,223,0.0
224,224,0.0
225,225,0.0
226,226,0.0
227,227,905502.0
228,228,2270678.2650936856
229,229,3995027.925052047
230,230,12694467.592040436
231,231,3790154.698126301
232,232,0.0
233,233,0.0
234,234,0.0
235,235,0.0
236,236,1253341.0632911392
237,237,0.0
238,238,464622.6666666666
239,239,703424.3333333333
240,240,0.0
241,241,0.0
242,242,0.0
243,243,0.0
244,244,0.0
245,245,2321896.571825121
246,246,0.0
247,247,0.0
248,248,0.0
249,249,0.0
250,250,0.0
251,251,0.0
252,252,0.0
253,253,0.0
254,254,0.0
255,255,0.0
256,256,2168241.651630812
257,257,1997513.9625260234
258,258,0.0
259,259,1365821.5128383064
260,260,2796441.666666667
261,261,0.0
262,262,0.0
263,263,0.0
264,264,0.0
265,265,0.0
266,266,0.0
267,267,0.0
268,268,0.0
269,269,0.0
270,270,1917560.0
271,271,79898.33333333334
272,272,0.0
273,273,0.0
274,274,0.0
275,275,0.0
276,276,0.0
277,277,0.0
278,278,0.0
279,279,0.0
280,280,0.0
281,281,0.0
282,282,0.0
283,283,0.0
284,284,0.0
285,285,0.0
286,286,0.0
287,287,0.0
288,288,0.0
289,289,24057256.62689785
290,290,4847864.991330108
291,291,8147002.145329354
292,292,522192.95279063046
293,293,0.0
294,294,0.0
295,295,0.0
296,296,0.0
297,297,0.0
298,298,0.0
299,299,0.0
300,300,0.0
301,301,4871467.879307782
302,302,1603147.371319266
303,303,152922.42141623487
304,304,0.0
305,305,0.0
306,306,0.0
307,307,0.0
308,308,11539854.25108225
309,309,0.0
310,310,0.0
311,311,0.0
312,312,0.0
313,313,0.0
314,314,0.0
315,315,0.0
316,316,0.0
317,317,0.0
318,318,982115.2554112554
319,319,0.0
