CountryID,Country-Name3
122,Algeria
103,Angola
102,Benin
108,Botswana
149,Burkina Faso
125,Burundi
146,Cameroon
219,Cape Verde
86,Central African Republic
115,Chad
,Comoros
32,Congo
33,Congo Democratic Republic
97,Cote D'Ivoire
88,Djibouti
161,Egypt
164,Equatorial Guinea
89,Eritrea
14,Ethiopia
147,Gabon
,Gambia
151,Ghana
84,Guinea
152,Guinea-Bissau
17,Kenya
145,Lesotho
85,Liberia
73,Libya
179,Madagascar
19,Malawi
99,Mali
163,Mauritania
,Mauritius
28,Marocco
123,Mozambique
37,Namibia
148,Niger
101,Nigeria
,Reunion
126,Rwanda
100,Senegal
83,Sierra Leonne
16,Somalia
38,South Africa
87,Sudan
,Swaziland
20,Tanzania
150,Togo
74,Tunesia
133,Uganda
82,Zambia
109,Zimbabwe
,Anigua and Barbadu
184,Bahamas
199,Barbados
157,Belize
155,Canada
30,Costa Rica
135,Cuba
,Dominica
114,Dominican Republic
117,El Salvador
,Grenada
118,Guatamala
113,Haiti
136,Honduras
211,Jamaica
156,Mexico
31,Nicaragua
158,Panama
,Saint Kitts and Nevis
,Trinidad and Tobago
154,United states of America
6,Argentina
4,Bolivia
46,Brazil
3,Chile
138,Colombia
137,Ecuador
25,Guyana
139,Paraguay
5,Peru
24,Suriname
47,Uruguay
159,Venezuela
130,Afghanistan
,Bahrian
128,Bangladesh
34,Bhutan
120,Brunei
58,Cambodia
10,China
9,India
1,Indonesia
94,Iran
91,Iraq
11,Israel
187,Japan
143,Jordan
27,Korea Democratic People's Republic
26,Korea Republic
116,Kuwait
69,Laos
13,Lebanon
2,Malaysia
,Maldives
48,Mongolia
127,Myanmar
144,Nepal
41,Oman
18,Pakistan
180,Philippines
106,Qatar
107,Saudi Arabia
228,Singapore
181,Sri Lanka
21,Syria
186,Taiwan
111,Thailand
67,Turkey
60,United Arab Emirates
57,Vietnam
162,Yemen
64,Albania
90,Austria
61,Belgium
132,Bosnia and Herzegovina
110,Bulgaria
104,Croatia
,Cyprus
50,Czech Republic
72,Denmark
52,Estonia
56,Finland
23,France
51,Germany
81,Greece
76,Hungary
189,Iceland
79,Ireland
92,Italy
59,Luxembourg
63,Macedonia
,Malta
95,Netherlands
54,Norway
78,Poland
140,Portugal
75,Romania
77,Slovakia
105,Slovenia
68,Spain
55,Sweden
93,Switzerland
80,United Kingdom
98,Serbia-Montenegro
49,Russia
71,Armenia
65,Azerbaijan
36,Belarus
,Estonia
62,Georgia
43,Kazakhstan
70,Kyrgyzstan
53,Latvia
45,Lithuania
141,Moldova
44,Tajikistan
142,Turkmenistan
35,Ukraine
42,Uzbekistan
174,Australia
176,Fiji
177,New Zealand
160,Papua New Guinea
234,Solomon Islands
