,TriangleID,Labour2018
0,0,0.0
1,1,53382581.14285716
2,2,703767.5723000824
3,3,14054901.44217886
4,4,115096574.97049892
5,5,105961984.17419289
6,6,15064582.120862536
7,7,106187677.04626243
8,8,6977006.104699093
9,9,8433076.943940641
10,10,521758.7173948887
11,11,6115497.524814509
12,12,6328106.678995869
13,13,3567373.5561417975
14,14,125643756.32361458
15,15,51223820.34230587
16,16,0.0
17,17,0.0
18,18,775564.9577199935
19,19,0.0
20,20,0.0
21,21,0.0
22,22,84937.46562242376
23,23,0.0
24,24,18945704.465039175
25,25,4675455.724680157
26,26,0.0
27,27,9487986.629798032
28,28,1020448.7717919915
29,29,9974379.145432094
30,30,0.0
31,31,3130854.3340526544
32,32,0.0
33,33,16112925.079474375
34,34,2011492.42446071
35,35,3250874.592935903
36,36,25506159.648421563
37,37,7289547.27930772
38,38,13698186.148107823
39,39,25254659.428581048
40,40,1045890.8274111677
41,41,3474872.2571912017
42,42,1405951.604060914
43,43,2371828.9255499155
44,44,3566610.239456472
45,45,1800303.8832487306
46,46,25642654.091784623
47,47,4891721.164276842
48,48,9299165.967553712
49,49,27060804.361271735
50,50,114668962.88666548
51,51,27419659.64150502
52,52,0.0
53,53,0.0
54,54,28576.252115059222
55,55,0.0
56,56,3539172.047625679
57,57,44089.744186046504
58,58,388573.9534883721
59,59,151864.67441860464
60,60,0.0
61,61,39207926.47571257
62,62,0.0
63,63,615860.7894736843
64,64,123019586.7533494
65,65,41577608.812904425
66,66,40697342.74479894
67,67,100174315.43510742
68,68,44460052.118625246
69,69,9346229.809617747
70,70,57513452.61173235
71,71,29240324.08572323
72,72,8032657.463149215
73,73,7740103.606592761
74,74,509913.1900918346
75,75,2135570.56422094
76,76,10228061.255300554
77,77,6652707.346851927
78,78,16289361.928443056
79,79,5876847.057085948
80,80,3429833.179245284
81,81,6721975.005641026
82,82,0.0
83,83,762185.1509433964
84,84,42388860.88843641
85,85,20903019.697660185
86,86,17659283.94721626
87,87,13710765.639654227
88,88,42320087.12953368
89,89,55021888.47819529
90,90,208689910.5450969
91,91,160375682.9752723
92,92,20273432.805618465
93,93,0.0
94,94,29330113.055477582
95,95,2347785.7740384615
96,96,0.0
97,97,0.0
98,98,0.0
99,99,0.0
100,100,0.0
101,101,0.0
102,102,0.0
103,103,0.0
104,104,49216216.90306643
105,105,8638497.31192428
106,106,6199178.283075105
107,107,8925284.339451477
108,108,2921923.271672772
109,109,14434763.200388577
110,110,0.0
111,111,7029734.488070488
112,112,0.0
113,113,0.0
114,114,13512332.123974197
115,115,190273.20454545456
116,116,0.0
117,117,3118836.557103064
118,118,33876822.68347794
119,119,11490450.473537607
120,120,17113391.302197803
121,121,6822012.667385988
122,122,0.0
123,123,14392691.666666666
124,124,12777188.02275952
125,125,12012199.835914087
126,126,0.0
127,127,16357851.022046758
128,128,0.0
129,129,0.0
130,130,0.0
131,131,0.0
132,132,0.0
133,133,0.0
134,134,0.0
135,135,0.0
136,136,0.0
137,137,0.0
138,138,0.0
139,139,0.0
140,140,284623.1212775141
141,141,0.0
142,142,0.0
143,143,0.0
144,144,1673013.8070784176
145,145,36887644.392638035
146,146,28226767.949497182
147,147,4082046.23483181
148,148,43895765.5052389
149,149,93345283.6977337
150,150,75918194.05885337
151,151,87540967.16550153
152,152,0.0
153,153,826045.1481481481
154,154,0.0
155,155,0.0
156,156,8735058.0
157,157,801905.3128834356
158,158,29807110.15616286
159,159,32999108.0
160,160,1463887.0811936157
161,161,0.0
162,162,10023816.411042945
163,163,0.0
164,164,0.0
165,165,0.0
166,166,0.0
167,167,0.0
168,168,29899715.757958874
169,169,15675355.85492228
170,170,80857855.47467014
171,171,1083540.9490783997
172,172,0.0
173,173,16439058.914110428
174,174,0.0
175,175,0.0
176,176,9273252.66981132
177,177,22897562.422672346
178,178,35206437.2277451
179,179,13637293.213252837
180,180,0.0
181,181,0.0
182,182,0.0
183,183,0.0
184,184,28124051.258167043
185,185,43432655.28838457
186,186,6373921.024403749
187,187,19650344.088829722
188,188,2845597.9159959755
189,189,38617770.84748891
190,190,6491994.460209187
191,191,15864816.107496481
192,192,0.0
193,193,7938050.544642857
194,194,8156529.0
195,195,2694567.6160714286
196,196,11393952.521491153
197,197,0.0
198,198,18434130.800651688
199,199,4647149.417958474
200,200,1310870.7321428573
201,201,19585739.051059302
202,202,202686.84666666668
203,203,4236832.841248391
204,204,21164844.436813183
205,205,17551102.580357146
206,206,20325533.117585365
207,207,20026816.32738095
208,208,0.0
209,209,0.0
210,210,0.0
211,211,0.0
212,212,0.0
213,213,0.0
214,214,119935.0
215,215,0.0
216,216,0.0
217,217,0.0
218,218,0.0
219,219,0.0
220,220,0.0
221,221,0.0
222,222,0.0
223,223,0.0
224,224,0.0
225,225,0.0
226,226,0.0
227,227,374493.0
228,228,1209298.023594726
229,229,2127637.1242192923
230,230,5045792.251062298
231,231,2018527.5281054825
232,232,0.0
233,233,0.0
234,234,0.0
235,235,0.0
236,236,385738.9367088608
237,237,0.0
238,238,223435.0
239,239,316058.0
240,240,0.0
241,241,0.0
242,242,0.0
243,243,0.0
244,244,0.0
245,245,1236575.4226231782
246,246,0.0
247,247,0.0
248,248,0.0
249,249,0.0
250,250,0.0
251,251,0.0
252,252,0.0
253,253,0.0
254,254,0.0
255,255,0.0
256,256,1154743.225537821
257,257,1063818.5621096462
258,258,0.0
259,259,727397.3074253988
260,260,1584628.5000000002
261,261,0.0
262,262,0.0
263,263,0.0
264,264,0.0
265,265,0.0
266,266,0.0
267,267,0.0
268,268,0.0
269,269,0.0
270,270,1086602.4
271,271,45275.1
272,272,0.0
273,273,0.0
274,274,0.0
275,275,0.0
276,276,0.0
277,277,0.0
278,278,0.0
279,279,0.0
280,280,0.0
281,281,0.0
282,282,0.0
283,283,0.0
284,284,0.0
285,285,0.0
286,286,0.0
287,287,0.0
288,288,0.0
289,289,11263837.055732438
290,290,2342222.0178316124
291,291,3951696.036189365
292,292,264932.2185150376
293,293,0.0
294,294,0.0
295,295,0.0
296,296,0.0
297,297,0.0
298,298,0.0
299,299,0.0
300,300,0.0
301,301,2337709.469866978
302,302,794804.0439318828
303,303,70328.83246977547
304,304,0.0
305,305,0.0
306,306,0.0
307,307,0.0
308,308,4619195.606060606
309,309,0.0
310,310,0.0
311,311,0.0
312,312,0.0
313,313,0.0
314,314,0.0
315,315,0.0
316,316,0.0
317,317,0.0
318,318,393123.03030303033
319,319,0.0
